Naturiste;552 Boulevard Wilfrid-Hamel, Ville de Québec;['health', 'store', 'point_of_interest', 'establishment']
Thaï Express;552 Boulevard Wilfrid-Hamel, Ville de Québec;['restaurant', 'food', 'point_of_interest', 'establishment']
Subway;552 Boulevard Wilfrid-Hamel, Ville de Québec;['restaurant', 'food', 'point_of_interest', 'establishment']
Aspirateur Quebec;550 Boulevard Wilfrid-Hamel, Ville de Québec;['store', 'point_of_interest', 'establishment']
Sukiyaki;550 Boulevard Wilfrid-Hamel, Ville de Québec;['restaurant', 'food', 'point_of_interest', 'establishment']
Restaurant Valentine;552 Boulevard Wilfrid-Hamel, Ville de Québec;['restaurant', 'food', 'point_of_interest', 'establishment']
Centre du Rasoir et Plus;552 Boulevard Wilfrid-Hamel E16-B, Ville de Québec;['home_goods_store', 'store', 'point_of_interest', 'establishment']
Loto-Québec;550 Boulevard Wilfrid-Hamel, Ville de Québec;['store', 'point_of_interest', 'establishment']
Chez Ashton;550 Boulevard Wilfrid-Hamel, Ville de Québec;['restaurant', 'food', 'point_of_interest', 'establishment']
Dia Pizza Pasta;552 Boulevard Wilfrid-Hamel C14, Ville de Québec;['restaurant', 'food', 'point_of_interest', 'establishment']
EB Games;552 Boulevard Wilfrid-Hamel, Ville de Québec;['store', 'point_of_interest', 'establishment']
Centre de Couture;552 Boulevard Wilfrid-Hamel, Ville de Québec;['store', 'point_of_interest', 'establishment']
Boutique Florin Inc.;550 Boulevard Wilfrid-Hamel, Ville de Québec;['store', 'point_of_interest', 'establishment']
Mysa Sushi;552 Boulevard Wilfrid-Hamel, Ville de Québec;['restaurant', 'food', 'point_of_interest', 'establishment']
Bentley;552 Boulevard Wilfrid-Hamel, Ville de Québec;['store', 'point_of_interest', 'establishment']
Clair de Lune;550 Boulevard Wilfrid-Hamel, Ville de Québec;['health', 'home_goods_store', 'store', 'point_of_interest', 'establishment']
Manteaux;552 Boulevard Wilfrid-Hamel, Ville de Québec;['clothing_store', 'store', 'point_of_interest', 'establishment']
Le Vapeur Express;Place Fleur de Lys, 552 BOUL WILFRID-HAMEL, LOCAL C-12, Quebec;['store', 'point_of_interest', 'establishment']
Sears Parts Depot;500 Boul. Wilfrid-Hamel, Fleur de Lys centre commercial, A-I, Québec City;['home_goods_store', 'store', 'point_of_interest', 'establishment']
Ongles Pro Arts 2007;552 Boulevard Wilfrid-Hamel, Ville de Québec;['hair_care', 'beauty_salon', 'point_of_interest', 'establishment']
RE/MAX 1er Choix;325, rue Marais, bureau 250, Ville de Québec;['real_estate_agency', 'point_of_interest', 'establishment']
Chant-O-Fêtes;325 Rue du Marais #140, Ville de Québec;['florist', 'food', 'clothing_store', 'home_goods_store', 'store', 'point_of_interest', 'establishment']
Orientation Santé;325 Rue du Marais, Ville de Québec;['point_of_interest', 'establishment']
Services De Sécurité Chateaufort Inc;325 Rue du Marais, Ville de Québec;['point_of_interest', 'establishment']
DALARO | design architectural;Bureau 255, 325 Rue Marais, Ville de Québec;['point_of_interest', 'establishment']
Lemay Jean-Yves Assurances Inc;325 Rue du Marais, Ville de Québec;['insurance_agency', 'point_of_interest', 'establishment']
SylArt communication;325 Rue du Marais #245, Ville de Québec;['point_of_interest', 'establishment']
Jovaco Solutions Inc;325 Rue du Marais, Ville de Québec;['point_of_interest', 'establishment']
Assaut Stratégique;325 Rue du Marais, Ville de Québec;['point_of_interest', 'establishment']
Développement Optimum;325 Rue du Marais #245, Ville de Québec;['point_of_interest', 'establishment']
MA Huard Avocat Inc;325 Rue du Marais, Ville de Québec;['point_of_interest', 'establishment']
Agence Prolifik;325 Rue du Marais #245, Ville de Québec;['point_of_interest', 'establishment']
Legrand Sécurité;325 Rue du Marais #245, Ville de Québec;['point_of_interest', 'establishment']
Denis Blondeau;325 rue du Marais, Bureau 265, Ville de Québec;['insurance_agency', 'finance', 'point_of_interest', 'establishment']
REVERBER Stratégies financières intégrées;245-, 325, rue du Marais, Ville de Québec;['insurance_agency', 'finance', 'point_of_interest', 'establishment']
Synergie solutions Web;325 Rue du Marais #245, Ville de Québec;['point_of_interest', 'establishment']
Ultima fenestration;325, rue du Marais, Local 195, Québec City;['point_of_interest', 'establishment']
Blancharbon | Boîte stratégique;325 Rue Marais, Bureau 255, Ville de Québec;['point_of_interest', 'establishment']
Canada Revenu;325 Rue du Marais, Ville de Québec;['point_of_interest', 'establishment']
Déry & Associés;325 Rue du Marais, Ville de Québec;['accounting', 'finance', 'point_of_interest', 'establishment']
Voyages CAA-Québec;2600, bureau 133, boul. Laurier, Québec City;['travel_agency', 'point_of_interest', 'establishment']
Souris Mini;2600 Boulevard Laurier, Ville de Québec;['clothing_store', 'store', 'point_of_interest', 'establishment']
Club Entrain;2600 Bd Laurier, Ville de Québec;['gym', 'health', 'point_of_interest', 'establishment']
La Cité Médicale;2600 Boulevard Laurier #295, Ville de Québec;['health', 'point_of_interest', 'establishment']
Banque Laurentienne;2600, boul. Laurier, bureau 25, Ville de Québec;['bank', 'atm', 'finance', 'point_of_interest', 'establishment']
Bijoux Agatha;2600 Boulevard Laurier, Ville de Québec;['jewelry_store', 'store', 'point_of_interest', 'establishment']
Clinique Orthodontique D Blais;2590 Boulevard Laurier, Ville de Québec;['dentist', 'health', 'point_of_interest', 'establishment']
Gosselin Photo;2600 Boulevard Laurier, Ville de Québec;['electronics_store', 'home_goods_store', 'store', 'point_of_interest', 'establishment']
McDonald's;2600 Boulevard Laurier, Ville de Québec;['cafe', 'restaurant', 'food', 'store', 'point_of_interest', 'establishment']
Retraite Québec;2600 Boulevard Laurier, Ville de Québec;['local_government_office', 'point_of_interest', 'establishment']
Au Salon Fleuri Inc;2600 Boulevard Laurier, Ville de Québec;['point_of_interest', 'establishment']
Clinique D'Ophtalmologie De La Cité;2600 Boulevard Laurier, Ville de Québec;['health', 'point_of_interest', 'establishment']
HUB International;Place de la Cité, Tour Belle Cour 2590 boul. Laurier, 4th Floor Suite 435, Québec City;['insurance_agency', 'point_of_interest', 'establishment']
Bois Daaquam Inc;2600 Boulevard Laurier, Ville de Québec;['general_contractor', 'point_of_interest', 'establishment']
Randstad - Québec - Soutien administratif;2600 Boulevard Laurier #171, Ville de Québec;['point_of_interest', 'establishment']
Lingerie Flirt - Place de La Cité;2600 Boulevard Laurier suite 144, Ville de Québec;['clothing_store', 'store', 'point_of_interest', 'establishment']
Sushi Fu;2600 Boulevard Laurier, Ville de Québec;['restaurant', 'food', 'point_of_interest', 'establishment']
Association Minière du Québec Inc;2590 Boulevard Laurier, Ville de Québec;['point_of_interest', 'establishment']
Salon Darbourg Inc;2600 Boulevard Laurier, Ville de Québec;['hair_care', 'beauty_salon', 'health', 'point_of_interest', 'establishment']
Transportation Safety Board of Canada;2600 Boulevard Laurier, Ville de Québec;['local_government_office', 'point_of_interest', 'establishment']
Baribeau Hélène Nutritionniste & Diététiste;2500 Chemin des Quatre-Bourgeois, Ville de Québec;['health', 'point_of_interest', 'establishment']
SAQ Express;2500, Chemin des Quatre-Bourgeois, Halles Sainte-Foy, Ville de Québec;['liquor_store', 'store', 'point_of_interest', 'establishment']
Halles Sainte-Foy;2500 Chemin des Quatre-Bourgeois, Ville de Québec;['food', 'store', 'point_of_interest', 'establishment']
Centre De La Copie Elite;830 Route du Vallon, Québec City;['point_of_interest', 'establishment']
McDonald's;2520 Chemin des Quatre-Bourgeois, Ville de Québec;['cafe', 'restaurant', 'food', 'store', 'point_of_interest', 'establishment']
Anna Pierrot;2500 Chemin des Quatre-Bourgeois, Ville de Québec;['bakery', 'food', 'store', 'point_of_interest', 'establishment']
Boucherie Les Halles;2500 Chemin des Quatre-Bourgeois, Ville de Québec;['food', 'store', 'point_of_interest', 'establishment']
Brulerie Rousseau;2500 Chemin des Quatre-Bourgeois, Ville de Québec;['cafe', 'food', 'point_of_interest', 'establishment']
Poissonnerie Unimer;2500 Chemin des Quatre-Bourgeois, Ville de Québec;['meal_takeaway', 'restaurant', 'food', 'point_of_interest', 'establishment']
Général Tao;Québec City;['restaurant', 'food', 'point_of_interest', 'establishment']
Aux Petits Délices;2500 Chemin des Quatre-Bourgeois, Ville de Québec;['food', 'store', 'point_of_interest', 'establishment']
Physiothérapie Biokin Inc;2500 Chemin des Quatre-Bourgeois, Ville de Québec;['health', 'point_of_interest', 'establishment']
Brunet;2510 Chemin des Quatre-Bourgeois, Ville de Québec;['health', 'store', 'point_of_interest', 'establishment']
Conseiller en orientation Bruno Fournier, c.o.;2500 Chemin des Quatre-Bourgeois, Ville de Québec;['health', 'point_of_interest', 'establishment']
Boulangerie la Mère Michèle;2500 Chemin des Quatre-Bourgeois, Ville de Québec;['bakery', 'food', 'store', 'point_of_interest', 'establishment']
Voyages Ste-Foy Carlson Wagonlit;2500 Chemin des Quatre-Bourgeois, Ville de Québec;['travel_agency', 'point_of_interest', 'establishment']
Pates à Tout La Papillote;2500 Chemin des Quatre-Bourgeois, Ville de Québec;['food', 'store', 'point_of_interest', 'establishment']
Buddha-Station;2500 Chemin des Quatre-Bourgeois, Ville de Québec;['restaurant', 'food', 'point_of_interest', 'establishment']
Pizzart;2500 Chemin des Quatre-Bourgeois, Ville de Québec;['restaurant', 'food', 'point_of_interest', 'establishment']
Escompte Coiffe (Est-ce qu'on te coiffe?) Halles Ste-foy;826 Autoroute Robert Bourassa, Ville de Québec;['hair_care', 'point_of_interest', 'establishment']
Cinéma Le Clap;2360 Chemin Sainte-Foy, Ville de Québec;['movie_theater', 'point_of_interest', 'establishment']
Bronzage Pyramide;2360 Chemin Sainte-Foy, Ville de Québec;['point_of_interest', 'establishment']
Chez Victor;2360 Chemin Sainte-Foy, Ville de Québec;['restaurant', 'food', 'point_of_interest', 'establishment']
Thaïzone;2360 Chemin Sainte-Foy, Ville de Québec;['meal_delivery', 'restaurant', 'food', 'point_of_interest', 'establishment']
Bédard Ressources (Québec);2360 Chemin Sainte-Foy, bureau 390, Ville de Québec;['point_of_interest', 'establishment']
Metro Innovation;2360 Chemin Ste-Foy, Local 100, Québec;['grocery_or_supermarket', 'food', 'store', 'point_of_interest', 'establishment']
Popeye's Suppléments Ste-Foy;2360 Chemin Ste-Foy, local G027, Ville de Québec;['health', 'food', 'store', 'point_of_interest', 'establishment']
Frit's Burgers & Poutines;2360 Chemin Sainte Foy Local G-014, Québec;['restaurant', 'food', 'point_of_interest', 'establishment']
Aki Sushi;2360 Chemin Sainte-Foy, Ville de Québec;['restaurant', 'food', 'point_of_interest', 'establishment']
Centre Psycho-Corporel Acupuncture et Massothérapie Yousri Karakand;2360 Chemin Sainte-Foy, Ville de Québec;['health', 'point_of_interest', 'establishment']
Fly Sushi;2360 Chemin Sainte-Foy, Ville de Québec;['restaurant', 'food', 'point_of_interest', 'establishment']
Librairie La Liberté Inc;2360 Chemin Sainte-Foy, Ville de Québec;['point_of_interest', 'establishment']
Librairie La Liberte Inc.;2360, chemin Sainte-Foy, Ville de Québec;['book_store', 'store', 'point_of_interest', 'establishment']
Pyramide de Sainte-Foy;2360 Chemin Sainte-Foy, Ville de Québec;['shopping_mall', 'point_of_interest', 'establishment']
Marie Claude Ouellet;bureau 360, 2360 Chemin Sainte-Foy, Ville de Québec;['doctor', 'health', 'point_of_interest', 'establishment']
Legaré Francine;2360 Chemin Sainte-Foy, Ville de Québec;['point_of_interest', 'establishment']
Julie Tremblay, massothérapeute agréée;2360 Chemin Sainte-Foy, Ville de Québec;['spa', 'health', 'point_of_interest', 'establishment']
Dumais Hélène Linguiste;2360 Chemin Sainte-Foy, Ville de Québec;['point_of_interest', 'establishment']
Dollarama;2360 Chemin Sainte-Foy, La Pyramide, Québec City;['store', 'point_of_interest', 'establishment']
Services ConsultOption;2360 Chemin Sainte-Foy, Ville de Québec;['health', 'point_of_interest', 'establishment']
Le Maître du Pare-Brise inc;16 Avenue Eugéne Lamontagne, Ville de Québec;['car_repair', 'point_of_interest', 'establishment']
Couche-Tard;1805 1re Avenue, Ville de Québec;['convenience_store', 'food', 'store', 'point_of_interest', 'establishment']
Location Décoration L'évènement;3L6, 211 71e Rue Est, Québec City;['point_of_interest', 'establishment']
The Coffee Shop Limoilou;1789 1re Avenue, Ville de Québec;['cafe', 'food', 'point_of_interest', 'establishment']
MyKey Solution;1850 1re Avenue #2, Ville de Québec;['point_of_interest', 'establishment']
Clinique Dentaire St-François;1850 1re Avenue, Ville de Québec;['dentist', 'health', 'point_of_interest', 'establishment']
Pub les Guerriers;1816 1re Avenue, Ville de Québec;['bar', 'point_of_interest', 'establishment']
Joie De Vivre La Inc;1789 1re Avenue, Ville de Québec;['point_of_interest', 'establishment']
Stylicia Beauté;1816 1re Avenue, Ville de Québec;['hair_care', 'beauty_salon', 'point_of_interest', 'establishment']
Épicerie Saveur des Nations;1850 1re Avenue, Ville de Québec;['grocery_or_supermarket', 'food', 'store', 'point_of_interest', 'establishment']
La Mama Grilled Cheese;1804 1re Avenue, Ville de Québec;['restaurant', 'food', 'point_of_interest', 'establishment']
Chez Mai;2390 1re Avenue, Ville de Québec;['restaurant', 'food', 'point_of_interest', 'establishment']
Genest Genest Denturologistes;2310 1re Avenue, Ville de Québec;['health', 'point_of_interest', 'establishment']
Dollarama;4250 1re Av, Les Galeries Charlesbourg, Québec;['store', 'point_of_interest', 'establishment']
La Source;4250 1re Avenue, Ville de Québec;['electronics_store', 'store', 'point_of_interest', 'establishment']
Salon de Couture;4250 1re Avenue, Ville de Québec;['clothing_store', 'store', 'point_of_interest', 'establishment']
Stitches;4250 1re Avenue Unit 700, Ville de Québec;['clothing_store', 'store', 'point_of_interest', 'establishment']
Univers Gym Fitness;4250 1re Avenue, Ville de Québec;['gym', 'health', 'point_of_interest', 'establishment']
Charlesbourg Gallery;4250 1re Avenue, Ville de Québec;['shopping_mall', 'point_of_interest', 'establishment']
Cellulaire;4250 1re Avenue, Ville de Québec;['store', 'point_of_interest', 'establishment']
Aerus Canada;4250 1re Avenue, Ville de Québec;['point_of_interest', 'establishment']
Microplay;4250 1 Avenue, Local 40A, Charlesbourg;['store', 'point_of_interest', 'establishment']
Le Grenier;Galeries Charlesbourg, 4250 1e Avenue, Charlesbourg;['clothing_store', 'store', 'point_of_interest', 'establishment']
Marchand Giguère;4250 1re Avenue, Ville de Québec;['health', 'store', 'point_of_interest', 'establishment']
Loto-Quebec;4100 1re Avenue, Ville de Québec;['store', 'point_of_interest', 'establishment']
Bentley;4250 1re Avenue, Ville de Québec;['store', 'point_of_interest', 'establishment']
Visique - Québec - Galeries Charlesbourg;4250 1re Avenue, Ville de Québec;['health', 'point_of_interest', 'establishment']
Brume;4250 1re Avenue, Ville de Québec;['store', 'point_of_interest', 'establishment']
Chocolato Galeries Charlesbourg;4250 1re Avenue, Ville de Québec;['food', 'store', 'point_of_interest', 'establishment']
Bas Concept;4250 1re Avenue, Ville de Québec;['point_of_interest', 'establishment']
Vouxe Boutique;4250 1re Avenue, Ville de Québec;['clothing_store', 'store', 'point_of_interest', 'establishment']
Mode Chaussette;4250 1re Avenue, Ville de Québec;['point_of_interest', 'establishment']
Inter-Quebec Courtiers;4250 1re Avenue, Ville de Québec;['point_of_interest', 'establishment']
Honda Charlesbourg;4650 3e Av Ouest, Ville de Québec;['car_dealer', 'store', 'point_of_interest', 'establishment']
Walmart Beauport Supercentre;224 Avenue Joseph Casavant, Ville de Québec;['department_store', 'store', 'point_of_interest', 'establishment']
H&R Block;224 Avenue Joseph Casavant, Ville de Québec;['accounting', 'finance', 'point_of_interest', 'establishment']
Photos Unlimited Studios;224 Avenue Joseph Casavant, Ville de Québec;['point_of_interest', 'establishment']
Western Union Agent Location;24 Joseph-casavant, Wal Mart Customer Service Desk, Québec City;['finance', 'point_of_interest', 'establishment']
Walmart Pharmacy;224 Avenue Joseph Casavant, Ville de Québec;['pharmacy', 'health', 'store', 'point_of_interest', 'establishment']
Walmart Photo Center;Québec City;['point_of_interest', 'establishment']
Scotiabank;755 Rue Clemenceau, Ville de Québec;['bank', 'finance', 'point_of_interest', 'establishment']
Mondou;747 Rue Clemenceau, Ville de Québec;['food', 'store', 'point_of_interest', 'establishment']
Dollarama;749 Rue Clemenceau, Ville de Québec;['store', 'point_of_interest', 'establishment']
Bureau en Gros Beauport;843 Rue Clemenceau, Ville de Québec;['electronics_store', 'furniture_store', 'home_goods_store', 'store', 'point_of_interest', 'establishment']
Clinique Médicale Giffard;3333 Rue du Carrefour, Ville de Québec;['health', 'point_of_interest', 'establishment']
Biba;3333 Rue du Carrefour, Ville de Québec;['clothing_store', 'store', 'point_of_interest', 'establishment']
Promenades Beauport;3333 Rue du Carrefour, Ville de Québec;['shopping_mall', 'point_of_interest', 'establishment']
Naturiste (Promenades Beauport);3333 Carrefour, Promenades Beauport, local 112, Ville de Québec;['health', 'store', 'point_of_interest', 'establishment']
MACLINIK Centre de santé dentaire de Québec;3333, Rue du Carrefour, Ville de Québec;['dentist', 'health', 'point_of_interest', 'establishment']
Physiothérapie Beauport;3333 Rue du Carrefour, Ville de Québec;['physiotherapist', 'health', 'point_of_interest', 'establishment']
Énergie Cardio;Promenades 2e étage, 3333 Rue du Carrefour, Québec City;['gym', 'health', 'point_of_interest', 'establishment']
Clinique Latitude;3333 Rue du Carrefour A205, Ville de Québec;['beauty_salon', 'health', 'point_of_interest', 'establishment']
Clinique Chiropratique Moore;3333 Rue du Carrefour A - 247, Ville de Québec;['health', 'point_of_interest', 'establishment']
Marchand-Giguère;3333, Rue Du Carrefour, Ville de Québec;['health', 'store', 'point_of_interest', 'establishment']
Voyages Laurier du Vallon;3333, rue du Carrefour, Bureau 190, Entrée 2, Québec City;['travel_agency', 'point_of_interest', 'establishment']
Gariépy Gravel Larouche Blouin CPA Sencrl;3333 Rue du Carrefour, Ville de Québec;['accounting', 'finance', 'point_of_interest', 'establishment']
Fleury & Associés, Notaires Inc.;3333 Rue du Carrefour, Ville de Québec;['finance', 'point_of_interest', 'establishment']
Banville Marien Dr;3333 Rue du Carrefour, Ville de Québec;['dentist', 'health', 'point_of_interest', 'establishment']
Bizou;3333 Rue Clemenceau, Ville de Québec;['jewelry_store', 'store', 'point_of_interest', 'establishment']
Bijouterie Luxedor Inc;3333 Rue du Carrefour, Ville de Québec;['jewelry_store', 'store', 'point_of_interest', 'establishment']
Chaussures Yellow;3333 Rue du Carrefour, Ville de Québec;['shoe_store', 'store', 'point_of_interest', 'establishment']
Nero Bianco;3333 Rue du Carrefour #50, Québec City;['shoe_store', 'store', 'point_of_interest', 'establishment']
MDEsthétique Dr. Stéphane Maurice (Québec);3333 Rue du Carrefour, Ville de Québec;['health', 'point_of_interest', 'establishment']
Manon Simard;3333 Rue du Carrefour, Ville de Québec;['beauty_salon', 'store', 'point_of_interest', 'establishment']
Uniprix Laurier Lavoie et associés - Pharmacie affiliée;2845 Avenue Saint David, Ville de Québec;['pharmacy', 'local_government_office', 'health', 'store', 'point_of_interest', 'establishment']
World Gym;2837 Avenue Saint David, Ville de Québec;['gym', 'health', 'point_of_interest', 'establishment']
Popeye's Suppléments;2835 Avenue Saint David, Ville de Québec;['health', 'food', 'store', 'point_of_interest', 'establishment']
Gym;2837 Avenue Saint David, Ville de Québec;['gym', 'health', 'point_of_interest', 'establishment']
Le Vieux Dublin Pub & Restaurant;636 Rue Cathcart, Montréal;['bar', 'restaurant', 'food', 'point_of_interest', 'establishment']
Promo Inc;620 Rue Cathcart, Montréal;['jewelry_store', 'store', 'point_of_interest', 'establishment']
CIBC Branch & ATM;600 Rue Cathcart, Montréal;['bank', 'finance', 'point_of_interest', 'establishment']
AEdifica;606 Rue Cathcart, Montréal;['point_of_interest', 'establishment']
Mukesh Jewellers;620 Rue Cathcart, Montréal;['jewelry_store', 'clothing_store', 'store', 'point_of_interest', 'establishment']
Ex Aurum Engagement Rings & Fine Jewelry;620 Rue Cathcart #300, Montréal;['jewelry_store', 'store', 'point_of_interest', 'establishment']
Eternal Diamonds;620 Rue Cathcart, Montréal;['jewelry_store', 'store', 'point_of_interest', 'establishment']
Sindbad Inc;606 Cathcart St #350, Montreal;['jewelry_store', 'finance', 'store', 'point_of_interest', 'establishment']
Solid Gold Online;620 Rue Cathcart #621, Montréal;['jewelry_store', 'store', 'point_of_interest', 'establishment']
Coulage M D Casting;620 Rue Cathcart, Montréal;['doctor', 'health', 'point_of_interest', 'establishment']
Unitec Inc;620 Rue Cathcart #721, Montréal;['point_of_interest', 'establishment']
Joaillerie St-Onge;620 Rue Cathcart #400, Montréal;['jewelry_store', 'store', 'point_of_interest', 'establishment']
Ormex Inc;620 Rue Cathcart, Montréal;['jewelry_store', 'store', 'point_of_interest', 'establishment']
Jano;620 Rue Cathcart, Montréal;['restaurant', 'jewelry_store', 'food', 'clothing_store', 'store', 'point_of_interest', 'establishment']
Byrex Gems;620 Rue Cathcart, Montréal;['jewelry_store', 'store', 'point_of_interest', 'establishment']
Groupe Marchand Architecture & Design Inc;606 Cathcart, bureau 600, Montréal;['point_of_interest', 'establishment']
Designs Unlimited;620 Rue Cathcart #552, Montréal;['jewelry_store', 'store', 'point_of_interest', 'establishment']
C B E;620 Rue Cathcart, Montréal;['jewelry_store', 'store', 'point_of_interest', 'establishment']
Sam Tardif Malek - Avocat d'affaire - Business lawyer - Malek Laflamme s.e.n.c.r.l. / l.l.p.;606 Rue Cathcart #615, Montréal;['lawyer', 'point_of_interest', 'establishment']
Gitan D Coté;620 Rue Cathcart, Montréal;['jewelry_store', 'clothing_store', 'store', 'point_of_interest', 'establishment']
Fido;1004 Rue Sainte-Catherine Ouest, Flagship Montreal, Montreal;['store', 'point_of_interest', 'establishment']
Rogers;1015 Rue Sainte-Catherine Ouest, Montréal;['store', 'point_of_interest', 'establishment']
Roots;1025 Rue Sainte-Catherine Ouest, Montréal;['clothing_store', 'shoe_store', 'store', 'point_of_interest', 'establishment']
National Post;1010 Rue Sainte-Catherine Ouest, Montréal;['point_of_interest', 'establishment']
AEO & Aerie Store;1035 Rue Sainte-Catherine Ouest, Montréal;['clothing_store', 'store', 'point_of_interest', 'establishment']
Financière Sun Life Montréal;1001, Carré Dorchester, bureau 600, Montreal;['insurance_agency', 'finance', 'point_of_interest', 'establishment']
Off The Hook;1021 Ste Catherine Ouest, Montréal;['clothing_store', 'store', 'point_of_interest', 'establishment']
Global Montreal;1010 Rue Sainte-Catherine Ouest #200, Montréal;['point_of_interest', 'establishment']
Lacoste Boutique;1011 Rue Sainte-Catherine Ouest, Montréal;['clothing_store', 'store', 'point_of_interest', 'establishment']
Sun Life Financial Advisor Van Tan Ngo, F. Pl.;1010 Rue Sainte-Catherine Ouest #600, Montréal;['atm', 'insurance_agency', 'health', 'finance', 'point_of_interest', 'establishment']
Montreal Gazette;#200, 1010 Rue Sainte-Catherine Ouest, Montréal;['point_of_interest', 'establishment']
Middle East Airlines Airliban S A L;1411 Rue Peel, Montréal;['point_of_interest', 'establishment']
TRISTAN;1001 Rue Sainte-Catherine Ouest, Montréal;['clothing_store', 'store', 'point_of_interest', 'establishment']
Autoplateau Location;1001 Rue du Square Dorchester, Montréal;['car_rental', 'point_of_interest', 'establishment']
SwarmJam Deals Montreal;1010 Rue Sainte-Catherine Ouest Suite 200, Montréal;['point_of_interest', 'establishment']
Gray Line Montreal;1255 Rue Peel, Montréal;['travel_agency', 'point_of_interest', 'establishment']
Marchand Faircheld Blais Financial Services Inc;1001 Rue du Square Dorchester, Montréal;['insurance_agency', 'point_of_interest', 'establishment']
Consulat D'Uruguay;1411 Rue Peel, Montréal;['embassy', 'point_of_interest', 'establishment']
City Styles;Canada, 1021 Saint-Catherine Street West, Montreal;['shoe_store', 'store', 'point_of_interest', 'establishment']
Chaussures Aldo Inc;1019 Rue Sainte-Catherine Ouest, Montréal;['shoe_store', 'clothing_store', 'store', 'point_of_interest', 'establishment']
Le Milsa;1476 Rue Crescent, Montréal;['restaurant', 'food', 'point_of_interest', 'establishment']
Electric Avenue Club;1476 Rue Crescent, Montréal;['night_club', 'bar', 'point_of_interest', 'establishment']
Sushi Crescent;1437 Rue Crescent, Montréal;['restaurant', 'food', 'point_of_interest', 'establishment']
Sir Winston Churchill Pub Complex;1459 Rue Crescent, Montréal;['bar', 'restaurant', 'food', 'point_of_interest', 'establishment']
Winnie Bar Restaurant;1455 Rue Crescent, Montréal;['bar', 'restaurant', 'food', 'point_of_interest', 'establishment']
Burger Bar Crescent;1465 Rue Crescent, Montréal;['restaurant', 'bar', 'food', 'point_of_interest', 'establishment']
Club Wanda's;1310 Boulevard de Maisonneuve Ouest, Montréal;['night_club', 'point_of_interest', 'establishment']
Ziggy's Pub;1470 Rue Crescent, Montréal;['bar', 'point_of_interest', 'establishment']
Swurl;Rue Crescent, Montréal;['cafe', 'food', 'point_of_interest', 'establishment']
Villemarie Collection;1454 Rue Crescent, Montréal;['restaurant', 'food', 'point_of_interest', 'establishment']
Club Entourage;1433 Rue Crescent, Montréal;['point_of_interest', 'establishment']
Karina;1455-1459 Crescent Street, Montréal;['night_club', 'bar', 'point_of_interest', 'establishment']
Thursday's;1449 Rue Crescent, Montréal;['bar', 'restaurant', 'food', 'point_of_interest', 'establishment']
Ben & Jerry's;1316 Boulevard de Maisonneuve Ouest, Montréal;['food', 'store', 'point_of_interest', 'establishment']
stationnement;1459 Rue Crescent, Montréal;['parking', 'point_of_interest', 'establishment']
L’Atelier d’Argentine Downtown;1458 Rue Crescent, Montréal;['restaurant', 'food', 'point_of_interest', 'establishment']
Bistro K2 Sushi;1468 Rue Crescent, Montréal;['restaurant', 'food', 'point_of_interest', 'establishment']
XO Club Lounge;1466 Rue Crescent, Montréal;['bar', 'point_of_interest', 'establishment']
Club Crescent;1423 Rue Crescent, Montréal;['night_club', 'point_of_interest', 'establishment']
Restaurant Azzurro;1437 Rue Crescent, Montréal;['restaurant', 'food', 'point_of_interest', 'establishment']
Cagibi (Le);5490 Boulevard Saint-Laurent, Montréal;['restaurant', 'cafe', 'bar', 'food', 'point_of_interest', 'establishment']
Comptoir21;21 Rue Saint Viateur Ouest, Montréal;['restaurant', 'food', 'point_of_interest', 'establishment']
Bar Waverly;5550 Boulevard Saint-Laurent, Montréal;['bar', 'night_club', 'point_of_interest', 'establishment']
Piché J & Fils Inc;5564 Boulevard Saint-Laurent, Montréal;['locksmith', 'point_of_interest', 'establishment']
PIZZA ST-VIATEUR;15 Rue Saint Viateur Ouest, Montréal;['meal_delivery', 'meal_takeaway', 'restaurant', 'food', 'point_of_interest', 'establishment']
Prospector Films;6 Rue Saint Viateur Ouest, Montréal;['point_of_interest', 'establishment']
Monastiraki;5478 Boulevard Saint-Laurent, Montréal;['art_gallery', 'store', 'point_of_interest', 'establishment']
Biospa Eden;5594 Boulevard Saint-Laurent, Montréal;['hospital', 'health', 'point_of_interest', 'establishment']
Melissa Gentile;6 Rue Saint Viateur Ouest Suite #2, Montréal;['store', 'point_of_interest', 'establishment']
Aesop Mile End;23 Rue Saint Viateur Ouest, Montréal;['store', 'point_of_interest', 'establishment']
Guillemot International Inc;5505 Boulevard Saint-Laurent, Montréal;['point_of_interest', 'establishment']
TAXI Plus;5594 Boulevard Saint-Laurent, Montréal;['point_of_interest', 'establishment']
Communauté Angolaise;5552 Boulevard Saint-Laurent, Montréal;['point_of_interest', 'establishment']
Le Jardin Du Cari;5554, boul Saint-Laurent, Montréal;['restaurant', 'food', 'point_of_interest', 'establishment']
Communauté Angolaise de Montréal & Am Is;5552 Boulevard Saint-Laurent, Montréal;['point_of_interest', 'establishment']
le poisson noir;5490 Boulevard Saint-Laurent, Montréal;['bar', 'point_of_interest', 'establishment']
Clinique Medical St Viadeul;6 Rue Saint Viateur Ouest, Montréal;['doctor', 'health', 'point_of_interest', 'establishment']
Banque Nationale;6875 Boulevard Saint-Laurent, Montréal;['bank', 'atm', 'finance', 'point_of_interest', 'establishment']
Pomodoro;6834 Boulevard Saint-Laurent, Montréal;['restaurant', 'food', 'point_of_interest', 'establishment']
Multimags;6889 Boulevard Saint-Laurent, Montréal;['point_of_interest', 'establishment']
Centre Canadien D'Immigration (CCI);6856 Boulevard Saint-Laurent, Montréal;['point_of_interest', 'establishment']
Katia Capparelli;6856 Boulevard Saint-Laurent, Montréal;['gym', 'health', 'point_of_interest', 'establishment']
Caffè Italia;6840 Boulevard Saint-Laurent, Montréal;['cafe', 'food', 'point_of_interest', 'establishment']
Atlantic Travel Club;6896 Boulevard Saint-Laurent, Montréal;['travel_agency', 'point_of_interest', 'establishment']
Buonanotte Traiteur;6885 Boulevard Saint-Laurent, Montréal;['food', 'point_of_interest', 'establishment']
Porchetta (Little Italy);6887 Boulevard Saint-Laurent, Montréal;['restaurant', 'food', 'point_of_interest', 'establishment']
Anatol Spices;6822 Boulevard Saint-Laurent, Montréal;['grocery_or_supermarket', 'food', 'store', 'point_of_interest', 'establishment']
Nip Paysage;6889 Boulevard Saint-Laurent, Montréal;['general_contractor', 'point_of_interest', 'establishment']
Milano Fruiterie;6862 Boulevard Saint-Laurent, Montréal;['grocery_or_supermarket', 'food', 'store', 'point_of_interest', 'establishment']
Esposito Roberto;6856 Boulevard Saint-Laurent, Montréal;['finance', 'point_of_interest', 'establishment']
Di Carlo Couture;6856 Boulevard Saint-Laurent #207, Montréal;['clothing_store', 'store', 'point_of_interest', 'establishment']
Viandes De Choix Milano;6862 Boulevard Saint-Laurent, Montréal;['store', 'point_of_interest', 'establishment']
Noix Fruits Secs;6852 Boulevard Saint-Laurent, Montréal;['point_of_interest', 'establishment']
Fine Charcuterie Fromages Milano;6870 Boulevard Saint-Laurent, Montréal;['store', 'point_of_interest', 'establishment']
Cacciatore & Fils Inc;6879 Boulevard Saint-Laurent, Montréal;['point_of_interest', 'establishment']
MASOF AUTO;6851 Rue Clark, Montréal;['point_of_interest', 'establishment']
Faema Distributeur Inc.;14 Rue Jean-Talon Ouest, Montreal;['store', 'point_of_interest', 'establishment']
Spa Aurora;7152 Boulevard Saint-Laurent, Montréal;['spa', 'beauty_salon', 'point_of_interest', 'establishment']
Bruno Driving School;26 Rue Jean-Talon Ouest, Montreal;['point_of_interest', 'establishment']
G2K Vape;7162 Boulevard Saint-Laurent, Montréal;['store', 'point_of_interest', 'establishment']
Voyages Cap Evasion;7168 Boulevard Saint-Laurent, Montréal;['point_of_interest', 'establishment']
Presse Café;7172 Boulevard Saint-Laurent, Montréal;['cafe', 'food', 'point_of_interest', 'establishment']
Job Select;7186 Boulevard Saint-Laurent, Montréal;['point_of_interest', 'establishment']
Distributeur Dragon Nail Supply;7132 Boulevard Saint-Laurent, Montréal;['beauty_salon', 'point_of_interest', 'establishment']
Banque Laurentienne;10 Rue Jean-Talon Est, Montréal;['bank', 'atm', 'finance', 'point_of_interest', 'establishment']
Cooperative Quebec Forestales;7170 Boulevard Saint-Laurent, Montréal;['point_of_interest', 'establishment']
Clinique Thérapie Zen;7160 Boulevard Saint-Laurent, Montréal;['health', 'point_of_interest', 'establishment']
Mobiliplus Inc.;7144 Boulevard Saint-Laurent, Montréal;['furniture_store', 'home_goods_store', 'store', 'point_of_interest', 'establishment']
Thanigai Market;20 Rue Jean-Talon Ouest, Montreal;['grocery_or_supermarket', 'food', 'store', 'point_of_interest', 'establishment']
Restaurant My Tien;18 Rue Jean-Talon Ouest, Montreal;['restaurant', 'food', 'point_of_interest', 'establishment']
Salon Diana Pia;7142 Boulevard Saint-Laurent, Montréal;['beauty_salon', 'point_of_interest', 'establishment']
Parc Guglielmo-Marconi;Montréal;['park', 'premise', 'point_of_interest', 'establishment']
Aubainerie Concept Mode (L');4250 Boulevard des Récollets, Trois-Rivières;['department_store', 'clothing_store', 'store', 'point_of_interest', 'establishment']
Chaussures Yellow;4520, boul. Des Récolets, Carrefour Trois-Rivières Ouest (Local 620-630), Trois-Rivières-Ouest;['shoe_store', 'store', 'point_of_interest', 'establishment']
Jeans Dépôt;4520 Boulevard des Récollets, Trois-Rivières;['clothing_store', 'store', 'point_of_interest', 'establishment']
Boutique Marie-Gabrielle Inc;Boulevard des Récollets, Trois-Rivières;['clothing_store', 'store', 'point_of_interest', 'establishment']
Boutik Electrik;4520 Boulevard Gene-H.-Kruger, Trois-Rivières;['point_of_interest', 'establishment']
Yves Rocher Boutiques Inc;4520 Boulevard des Récollets, Trois-Rivières;['store', 'point_of_interest', 'establishment']
Tutti Frutti;4520 Boulevard des Récollets, Trois-Rivières;['restaurant', 'food', 'point_of_interest', 'establishment']
Atelier Quilles Trois-Rivieres;4520 Boulevard des Récollets, Trois-Rivières;['bowling_alley', 'point_of_interest', 'establishment']
New York Coiffure et Esthétique;4520 Boulevard des Récollets, Trois-Rivières;['hair_care', 'beauty_salon', 'store', 'point_of_interest', 'establishment']
Western Union Agent Location;4520 DES Recollets Blvd, Wal Mart Customer Service Desk, Trois-Rivières;['finance', 'point_of_interest', 'establishment']
Koodo Mobile;4520 Boulevard des Récollets, Trois-Rivières;['store', 'point_of_interest', 'establishment']
Party VIP;4520 Boulevard des Récollets, Trois-Rivières;['home_goods_store', 'store', 'point_of_interest', 'establishment']
Poste Canada;4520 Boulevard des Récollets, Trois-Rivières;['pharmacy', 'health', 'store', 'point_of_interest', 'establishment']
Centre du Rasoir et Plus;Carrefour de Local 96, 4520 Boulevard des Récollets, Trois-Rivières;['home_goods_store', 'store', 'point_of_interest', 'establishment']
Institut Matis;4520 Boulevard des Récollets, Trois-Rivières;['beauty_salon', 'point_of_interest', 'establishment']
Centre Commercial-Carrefour De;4520 Boulevard des Récollets, Trois-Rivières;['shopping_mall', 'point_of_interest', 'establishment']
Zen Avantage;4520 Boulevard des Récollets, Trois-Rivières;['store', 'point_of_interest', 'establishment']
Aubainerie Trois-Rivières;4520 Boulevard des Récollets, Trois-Rivières;['clothing_store', 'store', 'point_of_interest', 'establishment']
Bentley;4520 Boulevard des Récollets, Trois-Rivières;['store', 'point_of_interest', 'establishment']
Onot 3;4520 Boulevard des Récollets, Trois-Rivières;['clothing_store', 'store', 'point_of_interest', 'establishment']
